id;name
1;Pines Gardens synthesizing
2;navigate
3;Practical Wooden Shirt Chips
4;communities Versatile
5;cutting-edge index Creative
6;Gorgeous Practical Cotton Hat
7;XSS
8;Hryvnia cyan Facilitator
9;Fresh
10;Borders regional
