id;key;value
1;Borders parse Nevada;56596
2;Cotton Buckinghamshire Glens;18800
3;Shoes National;10568
4;Up-sized;46207
5;driver synthesizing;54403
6;yellow Cross-platform;77474
7;Manager;51278
8;Cambridgeshire bleeding-edge;69500
9;mesh Granite Credit Card Account;36281
10;Avon;71275
